<?xml version="1.0" standalone="no"?>
<!DOCTYPE svg PUBLIC "-//W3C//DTD SVG 20010904//EN"
 "http://www.w3.org/TR/2001/REC-SVG-20010904/DTD/svg10.dtd">
<svg version="1.0" xmlns="http://www.w3.org/2000/svg"
 width="240.000000pt" height="240.000000pt" viewBox="0 0 240.000000 240.000000"
 preserveAspectRatio="xMidYMid meet">

<g transform="translate(0.000000,240.000000) scale(0.100000,-0.100000)"
fill="#005699" stroke="none">
<path d="M1162 2114 l-202 -145 0 -220 0 -219 51 25 c119 61 297 81 440 51 70
-15 180 -61 229 -96 17 -12 30 -18 30 -14 0 6 -339 756 -344 761 -1 1 -93 -63
-204 -143z"/>
<path d="M341 1523 c-140 -100 -258 -186 -263 -191 -8 -8 510 -1163 531 -1185
4 -4 392 -6 863 -5 l855 3 -143 315 c-79 173 -152 334 -161 357 l-18 42 -22
-92 c-35 -143 -82 -226 -188 -333 -99 -99 -174 -145 -305 -185 -95 -30 -260
-32 -360 -5 -198 53 -366 190 -454 370 -68 139 -69 143 -75 642 l-6 450 -254
-183z"/>
<path d="M1188 1455 c-144 -29 -297 -142 -365 -271 -44 -83 -63 -162 -63 -267
0 -298 240 -537 540 -537 244 0 455 156 523 388 l16 52 -78 0 -77 0 -23 -55
c-33 -79 -108 -157 -189 -197 -62 -31 -73 -33 -172 -33 -93 0 -111 3 -163 27
-160 75 -258 254 -228 420 30 173 155 298 329 330 167 31 346 -66 418 -227
l29 -64 74 -1 74 0 -6 38 c-12 69 -77 183 -143 250 -98 98 -260 164 -394 161
-19 0 -65 -7 -102 -14z"/>
<path d="M1200 1108 c-119 -64 -147 -223 -57 -325 127 -144 366 -54 367 138 0
63 -40 139 -92 175 -58 41 -154 46 -218 12z"/>
</g>
</svg>
