<?xml version="1.0" standalone="no"?>
<!DOCTYPE svg PUBLIC "-//W3C//DTD SVG 20010904//EN"
 "http://www.w3.org/TR/2001/REC-SVG-20010904/DTD/svg10.dtd">
<svg version="1.0" xmlns="http://www.w3.org/2000/svg"
 width="528.000000pt" height="528.000000pt" viewBox="0 0 528.000000 528.000000"
 preserveAspectRatio="xMidYMid meet">
<metadata>
Created by potrace 1.10, written by Peter Selinger 2001-2011
</metadata>
<g transform="translate(0.000000,528.000000) scale(0.100000,-0.100000)"
fill="#094d8c" stroke="none">
<path d="M2410 5240 c-63 -4 -137 -12 -165 -18 -27 -6 -81 -16 -120 -22 -109
-18 -148 -26 -175 -37 -37 -16 -135 -43 -152 -43 -9 0 -43 -13 -76 -30 -34
-16 -68 -30 -76 -30 -9 0 -42 -13 -73 -29 -32 -15 -92 -45 -133 -65 -41 -20
-82 -41 -90 -46 -8 -5 -51 -30 -95 -56 -44 -26 -96 -60 -116 -75 -20 -16 -42
-29 -47 -29 -6 0 -15 -6 -19 -14 -4 -7 -24 -24 -43 -37 -35 -24 -69 -51 -99
-79 -9 -8 -49 -43 -88 -78 -76 -66 -274 -283 -284 -311 -4 -9 -19 -27 -33 -40
-14 -14 -26 -29 -26 -34 0 -4 -19 -34 -42 -65 -24 -31 -52 -73 -62 -92 -11
-19 -22 -37 -26 -40 -3 -3 -15 -23 -27 -45 -11 -22 -28 -53 -37 -70 -39 -73
-106 -218 -106 -231 0 -8 -4 -22 -9 -32 -31 -58 -51 -105 -51 -119 0 -10 -6
-35 -14 -58 -8 -22 -22 -67 -31 -100 -9 -33 -21 -73 -25 -90 -5 -16 -12 -55
-15 -85 -3 -30 -13 -84 -20 -120 -23 -106 -44 -521 -27 -543 5 -7 10 -50 11
-97 1 -47 7 -105 12 -130 5 -25 14 -78 20 -118 5 -40 14 -84 19 -98 6 -14 10
-34 10 -46 0 -11 6 -34 14 -51 7 -18 21 -61 31 -97 9 -36 30 -96 46 -134 16
-38 29 -79 29 -92 0 -12 4 -25 9 -28 8 -6 81 -147 81 -159 0 -3 13 -26 30 -50
16 -25 30 -49 30 -55 0 -15 57 -102 138 -213 39 -55 72 -101 72 -104 0 -20
425 -445 445 -445 3 0 49 -33 104 -73 111 -80 198 -137 213 -137 6 0 30 -13
55 -30 24 -16 47 -30 50 -30 12 0 153 -73 159 -81 3 -5 16 -9 28 -9 13 0 50
-12 82 -26 33 -15 96 -37 140 -49 45 -12 88 -26 95 -31 13 -8 41 -14 154 -34
33 -5 87 -15 120 -21 136 -27 554 -50 578 -32 6 5 48 10 92 11 44 1 112 9 150
17 39 8 99 19 135 25 91 15 139 26 180 40 87 31 117 40 136 40 11 0 28 6 39
13 11 8 45 22 75 32 30 9 62 21 70 26 30 18 162 79 169 79 5 0 27 13 49 30 23
16 48 30 55 30 7 0 31 13 53 30 21 16 43 30 47 30 5 0 35 20 67 45 32 25 61
45 64 45 11 0 103 74 213 172 103 91 313 314 322 341 2 7 15 24 29 39 13 15
30 36 36 47 11 19 91 140 127 193 11 15 19 32 19 38 0 6 11 27 24 48 13 21 40
74 60 117 20 44 41 88 46 97 5 9 19 45 30 79 12 35 28 72 36 83 8 11 14 29 14
39 0 18 20 93 41 152 13 36 25 89 39 175 6 36 18 106 27 155 14 72 17 145 16
360 -1 161 -6 290 -12 320 -6 28 -16 84 -21 125 -10 82 -26 158 -41 205 -23
66 -49 166 -49 183 0 10 -5 23 -12 30 -12 12 -33 65 -47 117 -8 27 -78 175
-102 215 -5 8 -19 35 -31 60 -12 25 -29 56 -39 70 -9 14 -43 66 -75 115 -65
101 -135 195 -158 215 -9 7 -16 17 -16 22 0 5 -15 24 -32 41 -18 18 -56 57
-84 87 -70 75 -204 200 -214 200 -4 0 -14 7 -21 17 -13 15 -102 84 -140 108
-27 17 -163 106 -189 124 -14 9 -45 27 -70 39 -25 12 -52 26 -60 31 -51 31
-204 101 -220 101 -16 0 -52 15 -100 42 -22 12 -28 14 -115 33 -44 10 -85 22
-92 27 -13 10 -77 23 -208 43 -49 7 -110 18 -135 23 -60 14 -406 21 -550 12z
m320 -561 c66 -15 124 -45 178 -94 51 -46 129 -155 163 -227 11 -24 24 -50 29
-58 15 -25 40 -83 40 -92 0 -5 14 -38 30 -73 17 -35 30 -70 30 -77 0 -12 99
-219 109 -228 8 -7 29 -41 38 -60 10 -22 112 -157 228 -299 55 -68 114 -142
131 -165 17 -22 38 -47 47 -55 10 -7 17 -19 17 -27 0 -7 6 -17 13 -21 8 -4 24
-24 38 -43 13 -19 26 -37 29 -40 11 -10 65 -96 72 -112 4 -10 11 -18 16 -18 5
0 18 -19 31 -42 12 -24 31 -56 41 -73 38 -61 120 -235 120 -256 0 -11 5 -30
12 -42 60 -107 89 -318 77 -557 -9 -175 -48 -383 -77 -412 -7 -7 -12 -24 -12
-39 0 -40 -73 -207 -124 -282 -14 -21 -26 -41 -26 -45 0 -4 -13 -23 -30 -42
-16 -19 -29 -39 -30 -45 -1 -27 -305 -325 -332 -325 -4 0 -26 -13 -50 -29 -88
-59 -255 -133 -368 -164 -117 -32 -149 -39 -255 -57 -196 -35 -528 -23 -685
25 -25 7 -79 21 -120 31 -41 9 -101 30 -134 45 -32 16 -65 29 -75 29 -9 0 -36
14 -61 30 -25 16 -49 30 -54 30 -4 0 -53 30 -108 66 -109 73 -337 288 -338
321 -1 4 -14 24 -30 43 -17 19 -30 38 -30 42 0 4 -12 24 -26 45 -35 52 -114
218 -121 256 -3 18 -11 43 -18 57 -19 38 -42 125 -61 230 -25 140 -25 457 -1
565 24 103 47 175 64 200 7 11 13 27 13 37 0 22 90 210 124 261 14 21 26 40
26 44 0 3 14 22 30 43 17 21 30 41 30 44 0 11 124 176 132 176 5 0 13 12 18
26 10 26 51 78 152 195 32 37 58 70 58 74 0 3 7 14 16 22 22 22 189 244 197
263 4 8 21 38 37 65 17 28 35 61 41 75 5 14 23 51 39 83 17 31 30 64 30 72 0
15 42 109 113 255 43 89 125 207 173 251 46 41 128 86 175 97 59 13 154 14
209 1z m1190 -3739 c35 -35 40 -82 11 -117 -15 -18 -30 -23 -68 -23 -43 0 -52
4 -71 30 -26 35 -28 68 -4 96 43 51 89 56 132 14z"/>
<path d="M2604 4090 c-4 -22 -13 -45 -20 -51 -8 -6 -14 -20 -14 -30 0 -11 -4
-27 -10 -37 -5 -9 -21 -42 -35 -72 -36 -75 -72 -141 -90 -160 -8 -9 -15 -21
-15 -26 0 -21 -178 -276 -361 -517 -24 -33 -55 -76 -69 -96 -14 -20 -37 -50
-52 -66 -16 -17 -28 -34 -28 -38 0 -5 -13 -26 -29 -46 -35 -45 -169 -245 -195
-291 -11 -19 -26 -41 -33 -48 -7 -7 -13 -22 -13 -31 0 -10 -7 -24 -15 -31 -8
-7 -15 -16 -15 -21 0 -5 -13 -37 -29 -72 -16 -34 -37 -89 -46 -122 -10 -33
-24 -74 -32 -92 -19 -44 -18 -323 1 -366 8 -18 16 -43 19 -57 26 -132 139
-322 269 -452 57 -57 213 -178 230 -178 4 0 27 -13 50 -30 22 -16 49 -30 59
-30 9 0 32 -8 51 -17 18 -9 42 -21 52 -26 31 -15 184 -44 261 -50 39 -3 77 -8
86 -12 18 -7 267 20 338 37 94 22 330 126 339 150 2 4 8 8 13 8 17 0 135 96
205 168 102 104 211 272 234 360 25 97 34 129 46 159 19 43 19 263 0 306 -12
30 -23 66 -47 162 -6 22 -14 44 -20 49 -5 6 -9 17 -9 25 0 8 -6 22 -13 30 -7
9 -22 36 -32 61 -11 25 -32 63 -46 85 -15 22 -30 50 -33 63 -4 12 -12 22 -17
22 -5 0 -9 5 -9 11 0 6 -13 28 -30 49 -16 21 -30 41 -30 45 0 4 -13 24 -30 45
-16 21 -30 40 -30 43 0 3 -94 132 -210 286 -115 154 -210 282 -210 285 0 3
-19 32 -42 63 -24 32 -48 67 -55 78 -7 11 -30 49 -53 85 -49 78 -51 83 -81
140 -12 25 -26 52 -30 60 -5 8 -15 33 -24 55 -9 22 -23 54 -30 70 -8 17 -21
47 -29 68 -19 48 -34 47 -42 -3z m385 -1036 c36 -8 115 -74 137 -115 8 -16 15
-56 15 -90 1 -49 -3 -65 -19 -81 -29 -29 -94 -26 -157 8 -55 29 -125 99 -125
126 0 9 -5 28 -11 42 -9 20 -7 31 11 65 13 22 30 42 39 44 26 7 76 7 110 1z
m318 -375 c76 -47 144 -129 192 -230 54 -116 61 -150 61 -328 0 -167 -14 -257
-47 -306 -7 -11 -13 -26 -13 -33 0 -8 -13 -34 -30 -59 -16 -24 -30 -47 -30
-50 0 -10 -67 -88 -112 -131 -57 -55 -148 -122 -165 -122 -7 0 -13 -4 -13 -10
0 -5 -24 -10 -53 -10 -46 0 -57 4 -82 29 -23 25 -28 39 -29 87 0 51 2 59 29
81 153 124 226 221 274 360 39 111 42 213 9 312 -11 36 -25 70 -30 76 -4 5 -8
14 -8 21 0 13 -57 100 -95 146 -36 42 -33 88 7 134 51 58 82 65 135 33z"/>
</g>
</svg>
